docs/power/uCurrent Measurements (mV:mA)/Idle_uCurrent_mVmA.csv

CH1,Start,Increment,
Volt,2.43400e-01,2.00000e-05
1.44e-02,
3.20e-03,
2.40e-03,
1.36e-02,
1.36e-02,
2.40e-03,
1.36e-02,
4.80e-03,
4.00e-03,
1.44e-02,
1.44e-02,
2.40e-03,
2.40e-03,
1.44e-02,
4.00e-03,
1.36e-02,
1.44e-02,
3.20e-03,
3.20e-03,
1.44e-02,
1.52e-02,
4.80e-03,
1.36e-02,
3.20e-03,
2.40e-03,
1.36e-02,
4.00e-03,
1.52e-02,
4.00e-03,
1.52e-02,
1.44e-02,
3.20e-03,
4.00e-03,
1.36e-02,
5.60e-03,
1.44e-02,
3.20e-03,
1.36e-02,
1.44e-02,
4.80e-03,
5.60e-03,
1.60e-02,
1.36e-02,
4.00e-03,
4.00e-03,
1.52e-02,
4.00e-03,
1.44e-02,
1.36e-02,
1.60e-03,
4.80e-03,
1.36e-02,
4.00e-03,
1.20e-02,
1.44e-02,
3.20e-03,
3.20e-03,
1.28e-02,
1.36e-02,
3.20e-03,
3.20e-03,
1.44e-02,
1.52e-02,
3.20e-03,
1.28e-02,
3.20e-03,
1.28e-02,
3.20e-03,
1.28e-02,
3.20e-03,
4.00e-03,
1.28e-02,
1.28e-02,
4.00e-03,
4.80e-03,
1.44e-02,
1.36e-02,
2.40e-03,
5.60e-03,
1.60e-02,
2.40e-03,
1.60e-02,
3.20e-03,
1.76e-02,
4.00e-03,
1.44e-02,
4.80e-03,
1.36e-02,
4.00e-03,
1.36e-02,
4.80e-03,
1.36e-02,
4.00e-03,
1.60e-02,
1.28e-02,
4.00e-03,
4.00e-03,
1.52e-02,
3.20e-03,
1.44e-02,
3.20e-03,
2.00e-02,
4.00e-03,
1.36e-02,
4.00e-03,
1.36e-02,
3.20e-03,
1.36e-02,
1.36e-02,
2.40e-03,
1.60e-02,
4.00e-03,
3.20e-03,
1.28e-02,
1.20e-02,
5.60e-03,
1.44e-02,
2.40e-03,
4.00e-03,
1.36e-02,
4.00e-03,
1.44e-02,
4.00e-03,
1.36e-02,
1.36e-02,
3.20e-03,
1.52e-02,
3.20e-03,
1.36e-02,
4.00e-03,
1.44e-02,
5.60e-03,
1.36e-02,
4.00e-03,
4.00e-03,
1.36e-02,
1.36e-02,
8.00e-04,
1.28e-02,
4.00e-03,
4.00e-03,
1.20e-02,
1.28e-02,
3.20e-03,
1.28e-02,
4.00e-03,
3.20e-03,
1.36e-02,
1.36e-02,
4.80e-03,
1.52e-02,
4.00e-03,
1.36e-02,
4.00e-03,
1.44e-02,
2.40e-03,
1.44e-02,
4.00e-03,
4.80e-03,
1.44e-02,
3.20e-03,
1.28e-02,
1.84e-02,
4.00e-03,
4.00e-03,
1.28e-02,
4.00e-03,
1.52e-02,
1.28e-02,
2.40e-03,
1.36e-02,
2.40e-03,
2.40e-03,
1.28e-02,
1.28e-02,
2.40e-03,
1.36e-02,
3.20e-03,
5.60e-03,
1.68e-02,
1.52e-02,
4.00e-03,
5.60e-03,
1.36e-02,
3.20e-03,
1.44e-02,
4.00e-03,
1.36e-02,
1.20e-02,
1.60e-03,
1.52e-02,
4.00e-03,
1.36e-02,
4.80e-03,
4.00e-03,
1.44e-02,
1.44e-02,
4.80e-03,
1.44e-02,
4.00e-03,
4.80e-03,
1.44e-02,
1.44e-02,
3.20e-03,
2.40e-03,
1.44e-02,
1.52e-02,
3.20e-03,
4.00e-03,
1.36e-02,
1.36e-02,
4.00e-03,
1.44e-02,
2.40e-03,
1.36e-02,
4.00e-03,
4.00e-03,
1.36e-02,
3.20e-03,
1.36e-02,
1.28e-02,
4.00e-03,
4.80e-03,
1.52e-02,
3.20e-03,
1.44e-02,
1.60e-03,
1.60e-02,
4.80e-03,
1.76e-02,
1.44e-02,
4.00e-03,
4.80e-03,
1.44e-02,
1.28e-02,
2.40e-03,
4.80e-03,
1.36e-02,
1.36e-02,
2.40e-03,
1.44e-02,
3.20e-03,
4.80e-03,
1.36e-02,
3.20e-03,
1.28e-02,
5.60e-03,
1.44e-02,
1.28e-02,
4.00e-03,
1.36e-02,
4.00e-03,
4.00e-03,
1.36e-02,
1.20e-02,
4.00e-03,
4.00e-03,
1.44e-02,
1.36e-02,
3.20e-03,
1.36e-02,
4.00e-03,
3.20e-03,
1.36e-02,
3.20e-03,
1.44e-02,
4.00e-03,
1.52e-02,
3.20e-03,
1.28e-02,
1.36e-02,
3.20e-03,
4.00e-03,
1.28e-02,
4.80e-03,
1.60e-02,
3.20e-03,
1.36e-02,
1.36e-02,
5.60e-03,
1.60e-02,
6.40e-03,
4.00e-03,
1.52e-02,
1.44e-02,
4.80e-03,
2.40e-03,
1.60e-02,
1.44e-02,
3.20e-03,
4.00e-03,
1.36e-02,
1.36e-02,
4.00e-03,
3.20e-03,
1.28e-02,
4.00e-03,
1.44e-02,
2.40e-03,
1.36e-02,
1.36e-02,
4.00e-03,
1.12e-02,
4.00e-03,
4.80e-03,
1.44e-02,
4.00e-03,
1.28e-02,
1.60e-03,
1.44e-02,
2.40e-03,
1.44e-02,
4.00e-03,
1.36e-02,
4.00e-03,
1.44e-02,
2.40e-03,
1.44e-02,
3.20e-03,
1.28e-02,
3.20e-03,
1.44e-02,
1.60e-02,
2.40e-03,
1.44e-02,
3.20e-03,
3.20e-03,
1.60e-02,
4.00e-03,
1.52e-02,
1.68e-02,
4.00e-03,
5.60e-03,
1.52e-02,
5.60e-03,
1.28e-02,
3.20e-03,
1.28e-02,
4.80e-03,
1.52e-02,
1.28e-02,
2.40e-03,
1.52e-02,
3.20e-03,
3.20e-03,
1.52e-02,
1.36e-02,
2.40e-03,
4.80e-03,
1.68e-02,
1.36e-02,
3.20e-03,
4.80e-03,
1.36e-02,
1.36e-02,
3.20e-03,
4.80e-03,
1.28e-02,
2.40e-03,
1.36e-02,
1.28e-02,
2.40e-03,
4.00e-03,
1.36e-02,
8.00e-04,
1.36e-02,
1.44e-02,
1.60e-03,
2.40e-03,
1.36e-02,
4.00e-03,
1.44e-02,
4.00e-03,
1.36e-02,
4.00e-03,
1.44e-02,
1.28e-02,
2.40e-03,
3.20e-03,
1.52e-02,
3.20e-03,
1.76e-02,
3.20e-03,
1.28e-02,
4.80e-03,
1.52e-02,
1.44e-02,
3.20e-03,
1.36e-02,
4.00e-03,
4.00e-03,
1.44e-02,
1.60e-02,
4.00e-03,
3.20e-03,
1.52e-02,
1.36e-02,
4.00e-03,
4.80e-03,
1.44e-02,
4.00e-03,
1.28e-02,
1.36e-02,
2.40e-03,
3.20e-03,
1.52e-02,
1.44e-02,
2.40e-03,
1.36e-02,
4.00e-03,
3.20e-03,
1.44e-02,
1.44e-02,
4.00e-03,
4.00e-03,
1.36e-02,
1.20e-02,
3.20e-03,
3.20e-03,
1.44e-02,
4.00e-03,
1.12e-02,
1.36e-02,
4.00e-03,
1.36e-02,
3.20e-03,
1.20e-02,
3.20e-03,
4.00e-03,
1.52e-02,
1.68e-02,
4.00e-03,
3.20e-03,
1.36e-02,
1.20e-02,
3.20e-03,
3.20e-03,
1.36e-02,
1.36e-02,
4.00e-03,
1.36e-02,
4.00e-03,
1.28e-02,
2.40e-03,
3.20e-03,
1.52e-02,
2.40e-03,
1.44e-02,
4.00e-03,
1.20e-02,
3.20e-03,
1.36e-02,
1.36e-02,
3.20e-03,
1.44e-02,
1.60e-03,
1.36e-02,
8.00e-04,
4.00e-03,
1.44e-02,
1.28e-02,
4.00e-03,
4.00e-03,
1.44e-02,
1.36e-02,
3.20e-03,
4.80e-03,
1.28e-02,
1.36e-02,
3.20e-03,
4.00e-03,
1.36e-02,
1.60e-02,
4.00e-03,
3.20e-03,
1.44e-02,
1.28e-02,
4.00e-03,
4.00e-03,
1.44e-02,
1.44e-02,
4.00e-03,
1.44e-02,
4.00e-03,
1.36e-02,
3.20e-03,
1.28e-02,
8.00e-04,
4.00e-03,
1.36e-02,
3.20e-03,
1.44e-02,
2.40e-03,
1.28e-02,
1.36e-02,
8.00e-04,
1.28e-02,
4.80e-03,
4.80e-03,
1.52e-02,
4.80e-03,
1.28e-02,
1.44e-02,
8.00e-04,
5.60e-03,
1.36e-02,
2.40e-03,
1.36e-02,
4.00e-03,
1.36e-02,
4.00e-03,
1.60e-02,
1.44e-02,
4.00e-03,
4.80e-03,
1.44e-02,
4.80e-03,
1.60e-02,
8.00e-04,
1.28e-02,
1.60e-03,
1.44e-02,
1.44e-02,
3.20e-03,
1.28e-02,
3.20e-03,
2.40e-03,
1.36e-02,
2.40e-03,
1.52e-02,
1.44e-02,
3.20e-03,
4.80e-03,
1.44e-02,
2.40e-03,
1.52e-02,
1.28e-02,
4.00e-03,
1.36e-02,
3.20e-03,
2.40e-03,
1.36e-02,
1.28e-02,
1.60e-03,
4.00e-03,
1.36e-02,
1.36e-02,
4.00e-03,
4.00e-03,
1.28e-02,
3.20e-03,
1.52e-02,
1.36e-02,
3.20e-03,
4.00e-03,
1.36e-02,
1.28e-02,
3.20e-03,
1.20e-02,
3.20e-03,
1.28e-02,
4.00e-03,
1.28e-02,
2.40e-03,
1.44e-02,
3.20e-03,
1.28e-02,
1.60e-03,
1.60e-03,
1.52e-02,
4.80e-03,
1.44e-02,
1.44e-02,
4.00e-03,
3.20e-03,
1.28e-02,
4.00e-03,
1.52e-02,
4.00e-03,
1.44e-02,
1.52e-02,
3.20e-03,
4.00e-03,
1.44e-02,
4.00e-03,
1.52e-02,
1.52e-02,
2.40e-03,
3.20e-03,
1.36e-02,
4.80e-03,
1.60e-02,
3.20e-03,
1.36e-02,
1.44e-02,
2.40e-03,
1.36e-02,
1.60e-03,
2.40e-03,
1.36e-02,
1.36e-02,
1.60e-03,
1.60e-03,
1.44e-02,
4.00e-03,
1.44e-02,
4.00e-03,
1.44e-02,
1.60e-03,
1.52e-02,
1.36e-02,
3.20e-03,
1.60e-03,
1.36e-02,
1.44e-02,
3.20e-03,
4.00e-03,
1.28e-02,
1.44e-02,
4.00e-03,
1.44e-02,
4.00e-03,
3.20e-03,
1.44e-02,
4.00e-03,
1.36e-02,
1.36e-02,
2.40e-03,
4.00e-03,
1.44e-02,
1.60e-02,
4.80e-03,
4.80e-03,
1.44e-02,
1.44e-02,
4.00e-03,
3.20e-03,
1.44e-02,
1.28e-02,
0.00e+00,
1.36e-02,
4.00e-03,
1.36e-02,
3.20e-03,
1.28e-02,
4.80e-03,
3.20e-03,
1.36e-02,
3.20e-03,
1.52e-02,
4.00e-03,
1.60e-02,
1.20e-02,
2.40e-03,
1.44e-02,
3.20e-03,
1.28e-02,
1.60e-03,
4.00e-03,
1.28e-02,
4.80e-03,
1.36e-02,
1.36e-02,
4.00e-03,
1.36e-02,
4.00e-03,
3.20e-03,
1.28e-02,
4.00e-03,
1.36e-02,
1.20e-02,
3.20e-03,
1.36e-02,
4.00e-03,
3.20e-03,
1.28e-02,
1.20e-02,
3.20e-03,
1.44e-02,
1.60e-03,
4.00e-03,
1.68e-02,
5.60e-03,
1.52e-02,
1.44e-02,
3.20e-03,
1.36e-02,
2.40e-03,
1.44e-02,
8.00e-04,
8.00e-04,
1.36e-02,
1.44e-02,
2.40e-03,
4.00e-03,
1.36e-02,
1.52e-02,
3.20e-03,
1.28e-02,
3.20e-03,
1.36e-02,
2.40e-03,
1.60e-03,
1.36e-02,
1.36e-02,
2.40e-03,
1.44e-02,
3.20e-03,
1.36e-02,
3.20e-03,
1.36e-02,
4.00e-03,
2.40e-03,
1.52e-02,
1.28e-02,
3.20e-03,
1.28e-02,
4.00e-03,
1.20e-02,
3.20e-03,
1.36e-02,
4.80e-03,
1.28e-02,
2.40e-03,
1.60e-02,
4.00e-03,
1.28e-02,
4.00e-03,
1.36e-02,
4.00e-03,
1.76e-02,
4.00e-03,
1.52e-02,
2.40e-03,
3.20e-03,
1.52e-02,
1.28e-02,
2.40e-03,
1.36e-02,
3.20e-03,
1.60e-03,
1.36e-02,
3.20e-03,
1.68e-02,
4.00e-03,
1.36e-02,
1.36e-02,
3.20e-03,
4.80e-03,
1.28e-02,
1.36e-02,
4.80e-03,
4.00e-03,
1.36e-02,
1.44e-02,
4.00e-03,
1.36e-02,
2.40e-03,
3.20e-03,
1.36e-02,
1.28e-02,
2.40e-03,
1.36e-02,
1.60e-03,
1.20e-02,
1.60e-03,
1.44e-02,
4.00e-03,
1.36e-02,
3.20e-03,
4.00e-03,
1.36e-02,
4.80e-03,
1.36e-02,
1.44e-02,
2.40e-03,
2.40e-03,
1.28e-02,
4.00e-03,
1.76e-02,
1.52e-02,
4.80e-03,
5.60e-03,
1.60e-02,
1.44e-02,
4.00e-03,
8.00e-04,
1.44e-02,
4.00e-03,
1.44e-02,
1.20e-02,
4.00e-03,
1.28e-02,
4.00e-03,
1.28e-02,
4.00e-03,
3.20e-03,
1.28e-02,
1.20e-02,
3.20e-03,
4.00e-03,
1.28e-02,
4.00e-03,
1.52e-02,
1.52e-02,
1.60e-03,
1.44e-02,
4.80e-03,
3.20e-03,
1.52e-02,
1.36e-02,
3.20e-03,
3.20e-03,
1.52e-02,
1.52e-02,
4.00e-03,
4.80e-03,
1.52e-02,
2.40e-03,
1.28e-02,
1.36e-02,
4.00e-03,
1.60e-03,
1.36e-02,
1.52e-02,
4.00e-03,
4.00e-03,
1.52e-02,
4.80e-03,
1.68e-02,
1.52e-02,
4.00e-03,
4.80e-03,
1.44e-02,
4.80e-03,
1.44e-02,
1.20e-02,
1.60e-03,
1.52e-02,
4.00e-03,
1.28e-02,
4.00e-03,
2.40e-03,
1.36e-02,
4.00e-03,
1.36e-02,
3.20e-03,
1.36e-02,
4.00e-03,
1.36e-02,
1.36e-02,
4.80e-03,
4.80e-03,
1.36e-02,
1.44e-02,
3.20e-03,
1.20e-02,
3.20e-03,
2.40e-03,
1.52e-02,
1.44e-02,
4.00e-03,
4.80e-03,
1.36e-02,
1.44e-02,
4.00e-03,
1.28e-02,
4.00e-03,
1.28e-02,
4.00e-03,
1.36e-02,
1.60e-03,
1.52e-02,
3.20e-03,
1.52e-02,
4.00e-03,
1.20e-02,
2.40e-03,
4.80e-03,
1.28e-02,
4.80e-03,
1.52e-02,
1.44e-02,
4.80e-03,
1.44e-02,
3.20e-03,
1.44e-02,
4.00e-03,
4.00e-03,
1.36e-02,
1.28e-02,
3.20e-03,
4.00e-03,
1.44e-02,
1.28e-02,
4.80e-03,
4.00e-03,
1.28e-02,
3.20e-03,
1.36e-02,
1.36e-02,
4.00e-03,
3.20e-03,
1.20e-02,
4.00e-03,
1.36e-02,
1.52e-02,
4.00e-03,
1.36e-02,
1.60e-03,
4.00e-03,
1.36e-02,
4.80e-03,
1.52e-02,
4.00e-03,
1.28e-02,
1.28e-02,
4.00e-03,
1.36e-02,
4.80e-03,
1.36e-02,
2.40e-03,
1.28e-02,
2.40e-03,
4.00e-03,
1.52e-02,
4.80e-03,
1.36e-02,
4.00e-03,
1.52e-02,
3.20e-03,
1.44e-02,
4.80e-03,
1.44e-02,
1.92e-02,
2.40e-03,
1.52e-02,
4.00e-03,
1.60e-03,
1.44e-02,
3.20e-03,
1.36e-02,
2.40e-03,
1.52e-02,
1.28e-02,
4.00e-03,
2.40e-03,
1.44e-02,
2.40e-03,
1.36e-02,
1.36e-02,
4.00e-03,
3.20e-03,
1.36e-02,
1.36e-02,
4.00e-03,
1.52e-02,
3.20e-03,
1.36e-02,
3.20e-03,
3.20e-03,
1.52e-02,
4.00e-03,
1.60e-02,
4.80e-03,
1.36e-02,
4.80e-03,
1.44e-02,
3.20e-03,
1.36e-02,
4.00e-03,
1.36e-02,
1.28e-02,
3.20e-03,
1.44e-02,
2.40e-03,
3.20e-03,
1.28e-02,
5.60e-03,
1.68e-02,
6.40e-03,
1.76e-02,
3.20e-03,
1.44e-02,
4.00e-03,
1.44e-02,
3.20e-03,
1.52e-02,
1.28e-02,
3.20e-03,
1.44e-02,
4.00e-03,
1.52e-02,
3.20e-03,
4.80e-03,
1.36e-02,
1.28e-02,
4.00e-03,
4.00e-03,
1.52e-02,
1.28e-02,
4.80e-03,
2.40e-03,
1.28e-02,
1.28e-02,
1.60e-03,
1.36e-02,
4.00e-03,
4.00e-03,
1.44e-02,
8.00e-04,
1.68e-02,
1.28e-02,
3.20e-03,
4.80e-03,
1.36e-02,
4.00e-03,
1.68e-02,
1.60e-03,
1.20e-02,
1.28e-02,
3.20e-03,
4.80e-03,
1.36e-02,
3.20e-03,
1.28e-02,
1.36e-02,
1.60e-03,
1.68e-02,
4.00e-03,
4.80e-03,
1.52e-02,
3.20e-03,
1.44e-02,
4.00e-03,
1.28e-02,
4.00e-03,
1.44e-02,
1.20e-02,
4.00e-03,
4.80e-03,
1.44e-02,
1.28e-02,
2.40e-03,
4.00e-03,
1.44e-02,
2.40e-03,
1.52e-02,
1.28e-02,
3.20e-03,
1.36e-02,
0.00e+00,
4.00e-03,
1.36e-02,
1.52e-02,
4.00e-03,
1.20e-02,
4.00e-03,
1.44e-02,
3.20e-03,
4.00e-03,
1.28e-02,
1.44e-02,
3.20e-03,
1.44e-02,
5.60e-03,
1.36e-02,
4.00e-03,
3.20e-03,
1.36e-02,
1.36e-02,
3.20e-03,
1.28e-02,
3.20e-03,
1.28e-02,
4.00e-03,
1.60e-03,
1.28e-02,
4.80e-03,
1.44e-02,
1.68e-02,
6.40e-03,
1.44e-02,
1.60e-03,
1.52e-02,
4.80e-03,
2.40e-03,
1.52e-02,
4.80e-03,
1.44e-02,
4.00e-03,
1.36e-02,
3.20e-03,
1.44e-02,
2.40e-03,
1.36e-02,
1.36e-02,
2.40e-03,
2.40e-03,
1.36e-02,
1.36e-02,
3.20e-03,
3.20e-03,
1.52e-02,
4.00e-03,
1.28e-02,
3.20e-03,
1.60e-02,
3.20e-03,
1.44e-02,
1.36e-02,
4.00e-03,
1.28e-02,
4.00e-03,
1.60e-02,
4.00e-03,
1.52e-02,
3.20e-03,
4.80e-03,
1.52e-02,
1.28e-02,
3.20e-03,
1.28e-02,
4.00e-03,
1.44e-02,
2.40e-03,
1.44e-02,
3.20e-03,
1.52e-02,
3.20e-03,
5.60e-03,
1.68e-02,
4.00e-03,
1.36e-02,
1.52e-02,
4.80e-03,
3.20e-03,
1.28e-02,
3.20e-03,
1.52e-02,
1.60e-02,
4.00e-03,
1.68e-02,
4.80e-03,
2.40e-03,
1.36e-02,
1.44e-02,
4.80e-03,
1.44e-02,
1.60e-03,
4.00e-03,
1.36e-02,
4.00e-03,
1.36e-02,
1.36e-02,
4.00e-03,
4.80e-03,
1.44e-02,
1.12e-02,
1.60e-03,
1.44e-02,
4.00e-03,
3.20e-03,
1.36e-02,
1.60e-03,
1.52e-02,
4.00e-03,
1.60e-02,
4.00e-03,
1.36e-02,
1.20e-02,
3.20e-03,
1.20e-02,
3.20e-03,
3.20e-03,
1.28e-02,
1.36e-02,
3.20e-03,
4.80e-03,
1.60e-02,
1.60e-02,
4.00e-03,
5.60e-03,
1.52e-02,
1.28e-02,
4.80e-03,
1.52e-02,
1.60e-03,
2.40e-03,
1.44e-02,
4.80e-03,
1.44e-02,
4.00e-03,
1.44e-02,
4.00e-03,
1.36e-02,
1.60e-02,
4.80e-03,
1.28e-02,
4.00e-03,
